…
## Simulate data

Use the `dd_sim`-function to produce simulation data.

``` r
# Apply function and set seed for reproducible example
data <- dd_sim(seed = 1000)
# Display data
data
```

    ## # A tibble: 4,500 x 10
    ##        y    A1    A2    A3    B1    B2    B3    C1    C2    C3
    ##    <dbl> <dbl> <dbl> <dbl> <dbl> <dbl> <dbl> <dbl> <dbl> <dbl>
    ##  1     0     0     0     0     0     0     0     0     0     0
    ##  2     0     0     0     0     0     0     0     0     0     0
    ##  3     0     0     0     0     0     0     0     0     0     0
    ##  4     1     0     0     0     1     0     0     1     1     0
    ##  5     0     1     1     0     0     0     0     0     0     0
    ##  6     0     0     0     0     0     0     0     1     0     0
    ##  7     0     0     0     0     0     0     0     0     0     0
    ##  8     0     0     0     0     1     1     0     0     0     0
    ##  9     1     0     0     0     0     0     0     1     0     0
    ## 10     0     0     0     0     0     1     0     0     0     0
    ## # … with 4,490 more rows
…
``` r
proc_data <- 
  data %>% 
  dd_preprocess()
```

Display the preprocessed data.

``` r
proc_data$data
```

    ## # A tibble: 4,500 x 34
    ##        y    A1    A2    A3    B1    B2    B3    C1    C2    C3 A1_x_B1 A1_x_B2
    ##    <dbl> <dbl> <dbl> <dbl> <dbl> <dbl> <dbl> <dbl> <dbl> <dbl>   <dbl>   <dbl>
    ##  1     0     0     0     0     0     0     0     0     0     0       0       0
    ##  2     0     0     0     0     0     0     0     0     0     0       0       0
    ##  3     0     0     0     0     0     0     0     0     0     0       0       0
    ##  4     1     0     0     0     1     0     0     1     1     0       0       0
    ##  5     0     1     1     0     0     0     0     0     0     0       0       0
    ##  6     0     0     0     0     0     0     0     1     0     0       0       0
    ##  7     0     0     0     0     0     0     0     0     0     0       0       0
    ##  8     0     0     0     0     1     1     0     0     0     0       0       0
    ##  9     1     0     0     0     0     0     0     1     0     0       0       0
    ## 10     0     0     0     0     0     1     0     0     0     0       0       0
    ## # … with 4,490 more rows, and 22 more variables: A1_x_B3 <dbl>, A1_x_C1 <dbl>,
    ## #   A1_x_C2 <dbl>, A1_x_C3 <dbl>, A2_x_B1 <dbl>, A2_x_B2 <dbl>, A2_x_B3 <dbl>,
    ## #   A2_x_C1 <dbl>, A2_x_C2 <dbl>, A2_x_C3 <dbl>, A3_x_B1 <dbl>, A3_x_B2 <dbl>,
    ## #   A3_x_C1 <dbl>, A3_x_C2 <dbl>, B1_x_C1 <dbl>, B1_x_C2 <dbl>, B1_x_C3 <dbl>,
    ## #   B2_x_C1 <dbl>, B2_x_C2 <dbl>, B2_x_C3 <dbl>, B3_x_C1 <dbl>, B3_x_C2 <dbl>
…
